<?xml version="1.0" encoding="utf-8"?>
<!-- Generator: Adobe Illustrator 21.0.2, SVG Export Plug-In . SVG Version: 6.00 Build 0)  -->
<svg version="1.1" id="Layer_1" xmlns="http://www.w3.org/2000/svg" xmlns:xlink="http://www.w3.org/1999/xlink" x="0px" y="0px"
	 viewBox="0 0 180 75" style="enable-background:new 0 0 180 75;" xml:space="preserve">
<g>
	<g>
		<path d="M3.3,15.1v-0.5l0.9-0.6c0.1-0.1,0.3-0.2,0.4-0.3v-1.4c0-0.5,0-1.1-0.1-1.8c0.7-0.2,1.1-0.4,1.3-0.4c0,0,0.5-0.2,1.3-0.6
			l0.3,0.2l-0.1,1.1L7.2,12l-0.1,1.8h0.3c0.9,0,1.6,0,2-0.1l-0.2,1.4c-0.1,0-0.2,0-0.2,0l-1,0h-1v3.4c0,1,0,1.7,0,1.8
			c0,0.3,0.1,0.6,0.3,0.7c0.2,0.2,0.5,0.3,0.9,0.3c0.2,0,0.4,0,0.6,0c0.1,0,0.3,0,0.5-0.1l0.2,0.4L9.2,22c-0.3,0.3-0.6,0.6-0.8,0.8
			c-0.3,0.1-0.5,0.2-0.7,0.2S7.3,23,7.1,23c-0.8,0-1.4-0.2-1.8-0.6c-0.4-0.4-0.7-0.9-0.7-1.5l0-3.3v-2.5H4.3
			C3.9,15.1,3.6,15.1,3.3,15.1z"/>
		<path d="M21.8,22v0.8c-1,0-1.7,0-2,0c-0.2,0-0.9,0-2.1,0l-0.1-0.1l0.1-2.1c0-0.4,0-0.8,0-1.3v-2c0-0.9-0.2-1.6-0.5-1.9
			c-0.3-0.4-0.7-0.5-1.3-0.5c-0.4,0-0.8,0.1-1.1,0.3c-0.3,0.2-0.5,0.5-0.7,0.9c-0.1,0.1-0.1,0.4-0.1,0.8v1.3c0,0.5,0,1.2,0,2
			c0,0.8,0,1.3,0.1,1.4c0,0.1,0,0.1,0.1,0.2c0,0,0.1,0.1,0.1,0.1c0.1,0,0.3,0.1,0.5,0.1l0.8,0v0.8c-1.8,0-2.9-0.1-3.1-0.1l-2.5,0.1
			V22c0.6,0,1-0.1,1.1-0.1c0.1,0,0.2-0.1,0.2-0.1c0.1-0.1,0.1-0.1,0.1-0.2c0-0.2,0.1-0.9,0.1-1.9c0-1.1,0-2,0-2.9v-3.3
			c0-1.1,0-2.1-0.1-3c0-0.5-0.1-0.7-0.1-0.8c0,0-0.1-0.1-0.1-0.1c-0.1,0-0.2-0.1-0.4-0.1c-0.1,0-0.4,0-0.9-0.1V8.8
			c1-0.1,1.6-0.2,2.1-0.3c0.4-0.1,1-0.3,1.8-0.5L14.3,8l-0.1,2.4c0,1.2,0,2.4,0,3.4v1l1.8-1.5c0.5-0.2,1-0.3,1.5-0.3
			c0.5,0,1,0.1,1.4,0.3c0.4,0.2,0.7,0.4,1,0.7c0.2,0.3,0.4,0.6,0.5,0.9c0.1,0.3,0.1,0.8,0.1,1.3c0,0.2,0,0.7,0,1.6
			c0,0.6,0,1.2,0,1.6c0,1.2,0,2,0.1,2.2c0,0.1,0.1,0.3,0.2,0.3C20.8,22,21.2,22,21.8,22z"/>
		<path d="M31.7,21.3l-0.4,1c-0.6,0.3-1.1,0.6-1.7,0.7c-0.4,0.1-0.9,0.2-1.5,0.2c-0.7,0-1.3-0.1-1.8-0.2c-0.5-0.2-0.9-0.4-1.3-0.6
			c-0.4-0.3-0.7-0.6-1-1c-0.3-0.4-0.5-0.8-0.6-1.4c-0.1-0.5-0.2-1.1-0.2-1.7c0-0.9,0.1-1.7,0.4-2.4c0.2-0.5,0.4-0.8,0.6-1.1
			c0.1-0.1,0.5-0.4,1.1-0.8c0.6-0.4,1-0.6,1.2-0.7c0.5-0.2,1-0.3,1.7-0.3c0.9,0,1.6,0.2,2.2,0.6c0.6,0.4,1,0.9,1.2,1.4
			c0.2,0.6,0.4,1.3,0.4,2.1c0,0.2,0,0.4,0,0.5c-0.2,0.1-0.4,0.1-0.8,0.2c-0.5,0.1-0.8,0.1-0.9,0.1c-0.5,0-1.2,0.1-2,0.1
			c-0.8,0-1.3,0-1.4,0c-0.1,0-0.2,0-0.3,0h-0.7c0.1,1.1,0.4,1.9,1,2.5s1.4,0.9,2.2,0.9c0.4,0,0.7,0,1.1-0.1c0.3-0.1,0.7-0.3,1.3-0.5
			L31.7,21.3z M29.3,17.1c0-1.1-0.1-1.8-0.4-2.3c-0.3-0.4-0.7-0.6-1.3-0.6c-0.5,0-1,0.2-1.3,0.7c-0.4,0.5-0.5,1.2-0.5,2.2
			c0.4,0.1,1.1,0.1,2,0.1C28.4,17.2,28.9,17.1,29.3,17.1z"/>
	</g>
	<g>
		<path d="M22.8,72c-0.1-0.4-0.4-1.6-0.8-3.5c-0.3-1.1-0.6-2.6-1.2-4.5l-4-14c-1.7-5.9-2.7-9.6-3.2-11.2c-1.1-3.7-1.9-5.9-2.4-6.6
			c-0.2-0.3-0.5-0.5-0.9-0.6C9.6,31.2,8,31.1,5.4,31v-3.7c4,0.1,8.2,0.1,12.7,0.1c4.6,0,9.1,0,13.4-0.1V31c-3.4,0-5.4,0.2-6,0.6
			c-0.4,0.2-0.6,0.6-0.6,1.1c0,0.6,0.2,1.5,0.5,2.7L31,56.9l8.2-18l2.8-6.1l2.8-6.6h4.8L63,56.9L67.7,43c0.7-2.2,1.4-4.6,2.1-7.3
			c0.3-1.4,0.5-2.3,0.5-2.7c0-0.8-0.2-1.2-0.7-1.4S67,31.2,63.6,31v-3.7c3.4,0.1,6.5,0.1,9.4,0.1c2.8,0,6.2,0,10-0.1V31
			c-2.2,0.1-3.4,0.2-3.6,0.2c-0.4,0.1-0.8,0.3-1.2,0.6c-0.4,0.3-0.7,0.7-0.9,1.1c-0.2,0.4-1,2.4-2.4,6.1c-0.5,1.4-1.5,4-2.8,7.8
			l-2.5,7.4l-0.8,2.1c-0.4,1.1-1.4,4.2-3,9.2L64,72h-7.7c-3-7.2-4.7-11.3-5.2-12.4l-7.6-17.3c-2.7,5.7-4.8,9.9-6.1,12.9
			S35,60.7,34,63.1L30.4,72H22.8z"/>
	</g>
	<g>
		<path d="M124.4,67.8v3.5c-3.6-0.2-6.7-0.2-9.5-0.2c-2.6,0-5.1,0.1-7.6,0.2l-0.4-0.5l0.4-6.1c-1.1,0.7-4.4,3.2-9.9,7.4
			c-1.4,0.3-2.7,0.5-4,0.5c-3.4,0-6-1-7.9-3c-1.9-2-2.9-4.8-2.9-8.6c0-2.5,0.4-4.6,1.3-6.2c0.9-1.6,1.8-2.8,2.7-3.6
			c1-0.8,2.5-1.5,4.5-2.2c4.9-1.7,10.3-3.1,16.1-4.1c0.1-3.7-0.7-6.5-2.3-8.4c-1.6-1.9-4.1-2.9-7.4-2.9c-1.3,0-2.6,0.2-3.8,0.5
			c-0.5,0.2-1.1,0.5-1.9,0.9l-2,4.7L86.9,39l0.3-6c2.3-1.6,4.5-2.9,6.6-4s3.5-1.8,4.4-2.1c1.1-0.3,2.8-0.5,4.8-0.5
			c3.4,0,6.2,0.5,8.4,1.5c2.2,1,3.8,2.1,4.8,3.5c1,1.3,1.8,2.8,2.1,4.3s0.6,3.4,0.6,5.8c0,1-0.1,3.6-0.2,7.8
			c-0.1,2.8-0.1,5.1-0.1,6.8c0,5.5,0.2,8.9,0.5,10.1c0.1,0.6,0.4,0.9,0.7,1.1C120.2,67.4,121.8,67.6,124.4,67.8z M107.3,48.8
			c-2.6,0.6-5.1,1.2-7.2,2s-3.7,1.8-4.5,2.9c-0.8,1.2-1.3,2.6-1.3,4.4c0,2,0.5,3.5,1.5,4.6s2.3,1.6,4,1.6c1.4,0,2.8-0.4,4.2-1.2
			c1.4-0.8,2.5-1.8,3.3-3.1V48.8z"/>
		<path d="M150.6,67.6v3.7c-3.9-0.2-7.9-0.4-12.1-0.4s-9,0.1-14.2,0.4v-3.7c2.9-0.1,4.7-0.2,5.4-0.4c0.5-0.1,0.8-0.3,1-0.5
			s0.4-0.6,0.5-1.1c0.2-0.9,0.4-3.9,0.5-8.8s0.1-9.3,0.1-13.1V28.3c0-4.9-0.1-9.3-0.3-13.4c-0.1-2.2-0.3-3.5-0.5-3.9
			c-0.1-0.2-0.3-0.4-0.5-0.5c-0.4-0.2-1-0.4-1.8-0.6c-0.5-0.1-1.9-0.1-4.2-0.2V6.4c3.8-0.4,6.9-0.8,9.2-1.3c2.3-0.5,5.4-1.3,9.3-2.5
			l1,0.6l-0.4,9.4c-0.2,5.3-0.2,11.7-0.3,19.4v11.9c0,4.5,0,7.9,0.1,10.1c0.1,5.6,0.2,8.9,0.3,10.1c0.1,1.2,0.2,1.9,0.3,2.2
			c0.1,0.2,0.2,0.4,0.5,0.6c0.3,0.2,0.8,0.4,1.4,0.5C146.2,67.3,147.7,67.4,150.6,67.6z"/>
		<path d="M176.7,67.6v3.7c-3.9-0.2-7.9-0.4-12.1-0.4s-9,0.1-14.2,0.4v-3.7c2.9-0.1,4.7-0.2,5.4-0.4c0.5-0.1,0.8-0.3,1-0.5
			c0.2-0.2,0.4-0.6,0.5-1.1c0.2-0.9,0.4-3.9,0.5-8.8c0.1-4.9,0.1-9.3,0.1-13.1V28.3c0-4.9-0.1-9.3-0.3-13.4
			c-0.1-2.2-0.3-3.5-0.5-3.9c-0.1-0.2-0.3-0.4-0.5-0.5c-0.4-0.2-1-0.4-1.8-0.6c-0.5-0.1-1.9-0.1-4.2-0.2V6.4
			c3.8-0.4,6.9-0.8,9.2-1.3c2.3-0.5,5.4-1.3,9.3-2.5l1,0.6l-0.4,9.4c-0.2,5.3-0.2,11.7-0.3,19.4v11.9c0,4.5,0,7.9,0.1,10.1
			c0.1,5.6,0.2,8.9,0.3,10.1s0.2,1.9,0.3,2.2c0.1,0.2,0.2,0.4,0.5,0.6c0.3,0.2,0.8,0.4,1.4,0.5C172.3,67.3,173.9,67.4,176.7,67.6z"
			/>
	</g>
</g>
</svg>
